<svg width="208" height="123" viewBox="0 0 208 123" fill="none" xmlns="http://www.w3.org/2000/svg">
<path d="M156.48 101.666C156.48 101.666 150.357 103.966 147.471 109.324C144.586 114.682 146.032 121.07 146.032 121.07C146.032 121.07 152.155 118.769 155.04 113.411C157.926 108.053 156.48 101.666 156.48 101.666Z" fill="#3F3D56"/>
<path d="M164.705 109.656C164.705 109.656 162.699 115.889 157.49 119.027C152.281 122.165 145.842 121.02 145.842 121.02C145.842 121.02 147.848 114.787 153.057 111.649C158.266 108.51 164.705 109.656 164.705 109.656Z" fill="#A55EEA"/>
<path d="M208 122.535H0V123H208V122.535Z" fill="#2F2E41"/>
<path d="M84.0061 101.142C81.0405 100.6 78.2167 99.4573 75.7075 97.7842L75.9818 97.4091C78.4389 99.0445 81.2036 100.16 84.1065 100.688C88.5014 101.479 95.0778 101.091 101.449 94.7539C113.849 82.4222 125.683 81.1802 125.801 81.1691L125.845 81.6322C125.728 81.6431 114.059 82.8683 101.777 95.084C96.7592 100.074 91.6106 101.454 87.4492 101.454C86.2946 101.453 85.1423 101.349 84.0061 101.142Z" fill="#2F2E41"/>
<path d="M119.589 91.3848C121.128 91.3848 122.375 90.1359 122.375 88.5952C122.375 87.0546 121.128 85.8057 119.589 85.8057C118.05 85.8057 116.803 87.0546 116.803 88.5952C116.803 90.1359 118.05 91.3848 119.589 91.3848Z" fill="#2F2E41"/>
<path d="M99.8569 104.403C101.395 104.403 102.643 103.154 102.643 101.613C102.643 100.073 101.395 98.8237 99.8569 98.8237C98.3184 98.8237 97.0712 100.073 97.0712 101.613C97.0712 103.154 98.3184 104.403 99.8569 104.403Z" fill="#2F2E41"/>
<path d="M158.67 122.768C158.67 122.768 154.616 121.509 146.538 120.247L146.714 117.77C148.107 103.822 138.821 82.8999 138.821 82.8999C142.369 93.2951 144.056 104.236 143.805 115.218C142.566 113.053 140.173 110.718 135.571 109.285C135.571 109.285 141.556 114.423 143.269 119.769C135.412 118.727 127.507 118.09 119.585 117.859L121.643 113.12L117.696 117.072C117.696 117.072 116.071 105.216 112.589 104.752L115.143 116.375C115.143 116.375 112.125 114.05 111.429 114.283L113.146 117.722C101.581 117.602 87.8226 118.125 71.8787 119.803L73.8214 115.329L69.875 119.281C69.875 119.281 68.25 107.425 64.7678 106.96L67.3214 118.583C67.3214 118.583 64.3035 116.259 63.6071 116.491L65.6135 120.509C60.4032 121.13 54.9755 121.883 49.3303 122.768H158.67Z" fill="#3F3D56"/>
<path d="M94.6326 10.3426C92.1023 13.0736 98.7177 19.7015 98.7177 19.7015C98.7177 19.7015 85.3215 21.9635 86.3845 21.8264C87.4474 21.6894 86.8966 10.4051 86.8966 10.4051C86.8966 10.4051 97.1629 7.61164 94.6326 10.3426Z" fill="#A0616A"/>
<path d="M103.956 39.5707L92.317 45.525L85.9959 49.1528C85.9959 49.1528 78.5444 58.5517 77.1542 64.1218C75.764 69.6919 83.1736 79.9868 84.0126 81.0505C84.4453 81.5929 84.8327 82.1701 85.1708 82.7762C85.4603 83.2077 87.9633 82.6505 90.6966 82.0636C93.4298 81.4767 90.3338 77.4227 90.3338 77.4227C90.3338 77.4227 86.8453 68.4972 86.5854 68.2963C86.3427 68.1087 85.5173 66.5653 86.1111 65.8898C86.6679 65.2931 87.0979 64.5893 87.3751 63.8213C87.6051 63.1607 87.9327 62.5384 88.3471 61.9751C88.3471 61.9751 98.8773 53.412 102.166 50.4964C105.455 47.5809 114.198 49.4135 114.198 49.4135C114.198 49.4135 110.07 65.2677 109.037 66.3384C108.005 67.4091 107.893 68.361 108.361 70.1758C108.828 71.9906 114.926 70.2666 114.926 70.2666L117.178 64.1166C117.178 64.1166 120.834 56.1448 122.819 47.9198C123.811 43.8072 121.916 41.3562 119.773 39.9333C117.712 38.5948 115.217 38.0976 112.802 38.5437L102.042 40.4339L109.505 37.2144L103.956 39.5707Z" fill="#2F2E41"/>
<path d="M61.0252 24.247L47.1305 19.945C47.1305 19.945 41.5175 12.6998 44.1618 11.4212C46.8061 10.1427 50.1167 17.6848 50.1167 17.6848L59.7938 18.3119L61.0252 24.247Z" fill="#A0616A"/>
<path d="M119.436 16.7141L131.789 9.02706C131.789 9.02706 135.386 0.59414 132.504 0.0282119C129.623 -0.537716 128.328 7.59827 128.328 7.59827L119.126 10.6602L119.436 16.7141Z" fill="#A0616A"/>
<path d="M121.748 8.02307L121.984 17.1337L101.163 20.8589C104.226 27.4201 103.448 34.8874 111.156 38.1603L85.1739 50.8865C86.3316 40.8817 81.502 33.3457 76.9878 23.9767C71.4894 21.9808 65.1031 23.4442 58.3383 26.3818L57.1226 16.9288L85.88 14.8608L90.6038 16.6692L95.6688 14.536C103.113 12.3212 113.801 8.11039 121.748 8.02307Z" fill="#A55EEA"/>
<path d="M108.791 69.8859C108.16 70.4361 107.572 74.9652 107.549 76.6088C107.527 78.2524 109.688 78.6769 110.869 78.759C112.05 78.8411 111.908 79.5624 112.688 80.165C113.468 80.7676 116.03 80.6716 119.395 79.5345C122.759 78.3974 117.131 74.67 116.641 74.4988C116.15 74.3277 114.087 69.2029 114.087 69.2029C114.087 69.2029 109.423 69.3357 108.791 69.8859Z" fill="#2F2E41"/>
<path d="M90.389 80.2282C91.139 80.6002 92.8536 84.8324 93.2914 86.4166C93.7292 88.0009 91.746 88.9598 90.6244 89.3388C89.5029 89.7178 89.8221 90.3798 89.2203 91.1606C88.6185 91.9413 86.1155 92.4985 82.573 92.2522C79.0304 92.006 83.5323 86.9721 83.9631 86.6821C84.394 86.3922 85.0934 80.9111 85.0934 80.9111C85.0934 80.9111 89.639 79.8561 90.389 80.2282Z" fill="#2F2E41"/>
<path d="M90.4129 13.8142C93.4893 13.8142 95.9833 11.3167 95.9833 8.23599C95.9833 5.15524 93.4893 2.65781 90.4129 2.65781C87.3364 2.65781 84.8424 5.15524 84.8424 8.23599C84.8424 11.3167 87.3364 13.8142 90.4129 13.8142Z" fill="#A0616A"/>
<path d="M83.9741 7.67647C83.6405 7.01007 83.4508 6.28075 83.4174 5.53604C83.3841 4.79133 83.5078 4.04794 83.7805 3.35431C84.3281 2.00246 85.5429 0.644774 88.1618 0.239284C93.8757 -0.645411 96.9165 3.36254 96.7568 4.67342C96.597 5.9843 95.8298 9.15313 95.8298 9.15313C95.8298 9.15313 96.1724 6.1529 94.7019 6.04694C93.2313 5.94098 87.5282 5.49406 86.0842 7.01051C85.6698 7.42238 85.3717 7.93687 85.2204 8.50161C85.0691 9.06634 85.07 9.66114 85.2229 10.2254L83.9741 7.67647Z" fill="#2F2E41"/>
</svg>
